{
    "packages": [
        {
            "name": "rt58xduino",
            "maintainer": "racer-tech",
            "websiteURL": "https://www.racer-tech.com/zh",
            "email": "chain40@outlook.com",
            "help": {
                "online": "https://www.racer-tech.com/zh"
            },
            "platforms": [
                {
                    "name": "RT58X Boards (Cortex-M3)",
                    "architecture": "rt58x",
                    "version": "0.1.0",
                    "category": "Contributed",
                    "url": "http://127.0.0.1:8000/arduinocore-rt58x.zip",
                    "archiveFileName": "arduinocore-rt58x.zip",
                    "checksum": "SHA-256:FF71BFEB72EA2095DCDE5B8FBB4EA3293FA16DAABC18293C17B9AC9F2B12CFC7",
                    "size": "4691919",
                    "boards": {
                        "name": "RT581 EVK"
                    },
                    "toolsDependencies": [
                        {
                            "packager": "rt58xduino",
                            "name": "arm-none-eabi-gcc",
                            "version": "10.3-2021.10"
                        }
                    ]
                }
            ],
            "tools": [
                {
                    "name": "arm-none-eabi-gcc",
                    "version": "10.3-2021.10",
                    "systems": [
                        {
                            "host": "i686-mingw32",
                            "archiveFileName": "gcc-arm-none-eabi-10.3-2021.10-win32.zip",
                            "url": "http://127.0.0.1:8000/gcc-arm-none-eabi-10.3-2021.10-win32.zip",
                            "checksum": "MD5:2bc8f0c4c4659f8259c8176223eeafc1",
                            "size": "200578763"
                        },
                        {
                            "host": "x86_64-apple-darwin",
                            "archiveFileName": "gcc-arm-none-eabi-10.3-2021.10-mac.tar.bz2",
                            "url": "http://127.0.0.1:8000/gcc-arm-none-eabi-10.3-2021.10-mac.tar.bz2",
                            "checksum": "MD5:7f2a7b7b23797302a9d6182c6e482449",
                            "size": "158961466"
                        },
                        {
                            "host": "x86_64-pc-linux-gnu",
                            "archiveFileName": "gcc-arm-none-eabi-10.3-2021.10-x86_64-linux.tar.bz2",
                            "url": "http://127.0.0.1:8000/gcc-arm-none-eabi-10.3-2021.10-x86_64-linux.tar.bz2",
                            "checksum": "MD5:2383e4eb4ea23f248d33adc70dc3227e",
                            "size": "157089706"
                        },
                        {
                            "host": "i686-pc-linux-gnu",
                            "archiveFileName": "gcc-arm-none-eabi-10.3-2021.10-x86_64-linux.tar.bz2",
                            "url": "http://127.0.0.1:8000/gcc-arm-none-eabi-10.3-2021.10-x86_64-linux.tar.bz2",
                            "checksum": "MD5:2383e4eb4ea23f248d33adc70dc3227e",
                            "size": "157089706"
                        }
                    ]
                }
            ]
        }
    ]
}